[TRACE] 2019-06-11 11:35:09.575 AbstractServiceRegistryImpl:229 - Initializing service [role=org.hibernate.engine.query.spi.NativeQueryInterpreter]
[DEBUG] 2019-06-11 11:35:09.597 JaccIntegrator:80 - Skipping JACC integration as it was not enabled
[DEBUG] 2019-06-11 11:35:09.604 SessionFactoryImpl:294 - Instantiated session factory
[TRACE] 2019-06-11 11:35:09.635 AbstractServiceRegistryImpl:229 - Initializing service [role=org.hibernate.persister.spi.PersisterFactory]
[TRACE] 2019-06-11 11:35:09.642 AbstractServiceRegistryImpl:229 - Initializing service [role=org.hibernate.persister.spi.PersisterClassResolver]
[TRACE] 2019-06-11 11:35:09.685 AbstractServiceRegistryImpl:229 - Initializing service [role=org.hibernate.property.access.spi.PropertyAccessStrategyResolver]
[DEBUG] 2019-06-11 11:35:09.693 ClassLoaderAccessImpl:55 - Not known whether passed class name [com.lukianchenko.model.CurrencyEntity] is safe
[DEBUG] 2019-06-11 11:35:09.694 ClassLoaderAccessImpl:57 - No temp ClassLoader provided; using live ClassLoader for loading potentially unsafe class : com.lukianchenko.model.CurrencyEntity
[DEBUG] 2019-06-11 11:35:09.726 ClassLoaderAccessImpl:55 - Not known whether passed class name [com.lukianchenko.model.CurrencyEntity] is safe
[DEBUG] 2019-06-11 11:35:09.727 ClassLoaderAccessImpl:57 - No temp ClassLoader provided; using live ClassLoader for loading potentially unsafe class : com.lukianchenko.model.CurrencyEntity
[TRACE] 2019-06-11 11:35:09.830 AbstractPropertyMapping:122 - Skipping duplicate registration of path [id], existing type = [org.hibernate.type.StringType@24c1b2d2], incoming type = [org.hibernate.type.StringType@24c1b2d2]
[DEBUG] 2019-06-11 11:35:09.843 AbstractEntityPersister:3598 - Static SQL for entity: com.lukianchenko.model.CurrencyEntity
[DEBUG] 2019-06-11 11:35:09.844 AbstractEntityPersister:3603 -  Version select: select id from currencies where id =?
[DEBUG] 2019-06-11 11:35:09.844 AbstractEntityPersister:3606 -  Snapshot select: select currencyen_.id from currencies currencyen_ where currencyen_.id=?
[DEBUG] 2019-06-11 11:35:09.844 DelegatingBasicLogger:394 -  Insert 0: insert into currencies (id) values (?)
[DEBUG] 2019-06-11 11:35:09.844 DelegatingBasicLogger:394 -  Update 0: null
[DEBUG] 2019-06-11 11:35:09.844 DelegatingBasicLogger:394 -  Delete 0: delete from currencies where id=?
[DEBUG] 2019-06-11 11:35:09.844 AbstractEntityPersister:3614 -  Identity insert: insert into currencies values ( )
[TRACE] 2019-06-11 11:35:09.894 AbstractLoadPlanBuildingAssociationVisitationStrategy:172 -  Starting root entity : com.lukianchenko.model.CurrencyEntity
[DEBUG] 2019-06-11 11:35:09.912 QuerySpacesImpl:174 - Adding QuerySpace : uid = <gen:0> -> org.hibernate.loader.plan.build.internal.spaces.EntityQuerySpaceImpl@77bb0ab5]
[TRACE] 2019-06-11 11:35:09.914 AbstractLoadPlanBuildingAssociationVisitationStrategy:113 - Pushing fetch source to stack : org.hibernate.loader.plan.build.internal.returns.EntityReturnImpl@7bc9e6ab
[TRACE] 2019-06-11 11:35:09.916 AbstractLoadPlanBuildingAssociationVisitationStrategy:648 - .. Registering AssociationKey : AssociationKey(table=currencies, columns={id}) -> org.hibernate.loader.plan.build.internal.returns.EntityReturnImpl@7bc9e6ab
[TRACE] 2019-06-11 11:35:09.917 AbstractLoadPlanBuildingAssociationVisitationStrategy:239 - >> Starting entity identifier : com.lukianchenko.model.CurrencyEntity
[TRACE] 2019-06-11 11:35:09.918 AbstractLoadPlanBuildingAssociationVisitationStrategy:120 - Popped fetch owner from stack : org.hibernate.loader.plan.build.internal.returns.EntityReturnImpl@7bc9e6ab
[TRACE] 2019-06-11 11:35:09.919 AbstractLoadPlanBuildingAssociationVisitationStrategy:208 -  Finished root entity : com.lukianchenko.model.CurrencyEntity
[DEBUG] 2019-06-11 11:35:09.920 FetchStyleLoadPlanBuildingAssociationVisitationStrategy:150 - Building LoadPlan...
[DEBUG] 2019-06-11 11:35:09.948 LoadQueryJoinAndFetchProcessor:101 - processing queryspace <gen:0>
[DEBUG] 2019-06-11 11:35:09.957 LoadPlanTreePrinter:55 - LoadPlan(entity=com.lukianchenko.model.CurrencyEntity)
    - Returns
       - EntityReturnImpl(entity=com.lukianchenko.model.CurrencyEntity, querySpaceUid=<gen:0>, path=com.lukianchenko.model.CurrencyEntity)
    - QuerySpaces
       - EntityQuerySpaceImpl(uid=<gen:0>, entity=com.lukianchenko.model.CurrencyEntity)
          - SQL table alias mapping - currencyen0_
          - alias suffix - 0_
          - suffixed key columns - {id1_0_0_}

[DEBUG] 2019-06-11 11:35:09.961 EntityLoader:115 - Static select for entity com.lukianchenko.model.CurrencyEntity [NONE]: select currencyen0_.id as id1_0_0_ from currencies currencyen0_ where currencyen0_.id=?
[TRACE] 2019-06-11 11:35:09.961 AbstractLoadPlanBuildingAssociationVisitationStrategy:172 -  Starting root entity : com.lukianchenko.model.CurrencyEntity
[DEBUG] 2019-06-11 11:35:09.962 QuerySpacesImpl:174 - Adding QuerySpace : uid = <gen:0> -> org.hibernate.loader.plan.build.internal.spaces.EntityQuerySpaceImpl@73d69c0f]
[TRACE] 2019-06-11 11:35:09.962 AbstractLoadPlanBuildingAssociationVisitationStrategy:113 - Pushing fetch source to stack : org.hibernate.loader.plan.build.internal.returns.EntityReturnImpl@34237b90
[TRACE] 2019-06-11 11:35:09.962 AbstractLoadPlanBuildingAssociationVisitationStrategy:648 - .. Registering AssociationKey : AssociationKey(table=currencies, columns={id}) -> org.hibernate.loader.plan.build.internal.returns.EntityReturnImpl@34237b90
[TRACE] 2019-06-11 11:35:09.963 AbstractLoadPlanBuildingAssociationVisitationStrategy:239 - >> Starting entity identifier : com.lukianchenko.model.CurrencyEntity
[TRACE] 2019-06-11 11:35:09.963 AbstractLoadPlanBuildingAssociationVisitationStrategy:120 - Popped fetch owner from stack : org.hibernate.loader.plan.build.internal.returns.EntityReturnImpl@34237b90
[TRACE] 2019-06-11 11:35:09.963 AbstractLoadPlanBuildingAssociationVisitationStrategy:208 -  Finished root entity : com.lukianchenko.model.CurrencyEntity
[DEBUG] 2019-06-11 11:35:09.963 FetchStyleLoadPlanBuildingAssociationVisitationStrategy:150 - Building LoadPlan...
[DEBUG] 2019-06-11 11:35:09.964 LoadQueryJoinAndFetchProcessor:101 - processing queryspace <gen:0>
[DEBUG] 2019-06-11 11:35:09.964 LoadPlanTreePrinter:55 - LoadPlan(entity=com.lukianchenko.model.CurrencyEntity)
    - Returns
       - EntityReturnImpl(entity=com.lukianchenko.model.CurrencyEntity, querySpaceUid=<gen:0>, path=com.lukianchenko.model.CurrencyEntity)
    - QuerySpaces
       - EntityQuerySpaceImpl(uid=<gen:0>, entity=com.lukianchenko.model.CurrencyEntity)
          - SQL table alias mapping - currencyen0_
          - alias suffix - 0_
          - suffixed key columns - {id1_0_0_}

[DEBUG] 2019-06-11 11:35:09.965 EntityLoader:115 - Static select for entity com.lukianchenko.model.CurrencyEntity [READ]: select currencyen0_.id as id1_0_0_ from currencies currencyen0_ where currencyen0_.id=?
[TRACE] 2019-06-11 11:35:09.965 AbstractLoadPlanBuildingAssociationVisitationStrategy:172 -  Starting root entity : com.lukianchenko.model.CurrencyEntity
[DEBUG] 2019-06-11 11:35:09.965 QuerySpacesImpl:174 - Adding QuerySpace : uid = <gen:0> -> org.hibernate.loader.plan.build.internal.spaces.EntityQuerySpaceImpl@1d01dfa5]
[TRACE] 2019-06-11 11:35:09.965 AbstractLoadPlanBuildingAssociationVisitationStrategy:113 - Pushing fetch source to stack : org.hibernate.loader.plan.build.internal.returns.EntityReturnImpl@4a31c2ee
[TRACE] 2019-06-11 11:35:09.966 AbstractLoadPlanBuildingAssociationVisitationStrategy:648 - .. Registering AssociationKey : AssociationKey(table=currencies, columns={id}) -> org.hibernate.loader.plan.build.internal.returns.EntityReturnImpl@4a31c2ee
[TRACE] 2019-06-11 11:35:09.966 AbstractLoadPlanBuildingAssociationVisitationStrategy:239 - >> Starting entity identifier : com.lukianchenko.model.CurrencyEntity
[TRACE] 2019-06-11 11:35:09.966 AbstractLoadPlanBuildingAssociationVisitationStrategy:120 - Popped fetch owner from stack : org.hibernate.loader.plan.build.internal.returns.EntityReturnImpl@4a31c2ee
[TRACE] 2019-06-11 11:35:09.966 AbstractLoadPlanBuildingAssociationVisitationStrategy:208 -  Finished root entity : com.lukianchenko.model.CurrencyEntity
[DEBUG] 2019-06-11 11:35:09.967 FetchStyleLoadPlanBuildingAssociationVisitationStrategy:150 - Building LoadPlan...
[DEBUG] 2019-06-11 11:35:09.967 LoadQueryJoinAndFetchProcessor:101 - processing queryspace <gen:0>
[DEBUG] 2019-06-11 11:35:09.968 LoadPlanTreePrinter:55 - LoadPlan(entity=com.lukianchenko.model.CurrencyEntity)
    - Returns
       - EntityReturnImpl(entity=com.lukianchenko.model.CurrencyEntity, querySpaceUid=<gen:0>, path=com.lukianchenko.model.CurrencyEntity)
    - QuerySpaces
       - EntityQuerySpaceImpl(uid=<gen:0>, entity=com.lukianchenko.model.CurrencyEntity)
          - SQL table alias mapping - currencyen0_
          - alias suffix - 0_
          - suffixed key columns - {id1_0_0_}

[DEBUG] 2019-06-11 11:35:09.968 EntityLoader:115 - Static select for entity com.lukianchenko.model.CurrencyEntity [UPGRADE]: select currencyen0_.id as id1_0_0_ from currencies currencyen0_ where currencyen0_.id=? for update
[TRACE] 2019-06-11 11:35:09.968 AbstractLoadPlanBuildingAssociationVisitationStrategy:172 -  Starting root entity : com.lukianchenko.model.CurrencyEntity
[DEBUG] 2019-06-11 11:35:09.969 QuerySpacesImpl:174 - Adding QuerySpace : uid = <gen:0> -> org.hibernate.loader.plan.build.internal.spaces.EntityQuerySpaceImpl@d400943]
[TRACE] 2019-06-11 11:35:09.969 AbstractLoadPlanBuildingAssociationVisitationStrategy:113 - Pushing fetch source to stack : org.hibernate.loader.plan.build.internal.returns.EntityReturnImpl@22101c80
[TRACE] 2019-06-11 11:35:09.970 AbstractLoadPlanBuildingAssociationVisitationStrategy:648 - .. Registering AssociationKey : AssociationKey(table=currencies, columns={id}) -> org.hibernate.loader.plan.build.internal.returns.EntityReturnImpl@22101c80
[TRACE] 2019-06-11 11:35:09.970 AbstractLoadPlanBuildingAssociationVisitationStrategy:239 - >> Starting entity identifier : com.lukianchenko.model.CurrencyEntity
[TRACE] 2019-06-11 11:35:09.970 AbstractLoadPlanBuildingAssociationVisitationStrategy:120 - Popped fetch owner from stack : org.hibernate.loader.plan.build.internal.returns.EntityReturnImpl@22101c80
[TRACE] 2019-06-11 11:35:09.970 AbstractLoadPlanBuildingAssociationVisitationStrategy:208 -  Finished root entity : com.lukianchenko.model.CurrencyEntity
[DEBUG] 2019-06-11 11:35:09.971 FetchStyleLoadPlanBuildingAssociationVisitationStrategy:150 - Building LoadPlan...
[DEBUG] 2019-06-11 11:35:09.971 LoadQueryJoinAndFetchProcessor:101 - processing queryspace <gen:0>
[DEBUG] 2019-06-11 11:35:09.972 LoadPlanTreePrinter:55 - LoadPlan(entity=com.lukianchenko.model.CurrencyEntity)
    - Returns
       - EntityReturnImpl(entity=com.lukianchenko.model.CurrencyEntity, querySpaceUid=<gen:0>, path=com.lukianchenko.model.CurrencyEntity)
    - QuerySpaces
       - EntityQuerySpaceImpl(uid=<gen:0>, entity=com.lukianchenko.model.CurrencyEntity)
          - SQL table alias mapping - currencyen0_
          - alias suffix - 0_
          - suffixed key columns - {id1_0_0_}

[DEBUG] 2019-06-11 11:35:09.973 EntityLoader:115 - Static select for entity com.lukianchenko.model.CurrencyEntity [UPGRADE_NOWAIT]: select currencyen0_.id as id1_0_0_ from currencies currencyen0_ where currencyen0_.id=? for update
[TRACE] 2019-06-11 11:35:09.974 AbstractLoadPlanBuildingAssociationVisitationStrategy:172 -  Starting root entity : com.lukianchenko.model.CurrencyEntity
[DEBUG] 2019-06-11 11:35:09.974 QuerySpacesImpl:174 - Adding QuerySpace : uid = <gen:0> -> org.hibernate.loader.plan.build.internal.spaces.EntityQuerySpaceImpl@31ff1390]
[TRACE] 2019-06-11 11:35:09.974 AbstractLoadPlanBuildingAssociationVisitationStrategy:113 - Pushing fetch source to stack : org.hibernate.loader.plan.build.internal.returns.EntityReturnImpl@759d81f3
[TRACE] 2019-06-11 11:35:09.975 AbstractLoadPlanBuildingAssociationVisitationStrategy:648 - .. Registering AssociationKey : AssociationKey(table=currencies, columns={id}) -> org.hibernate.loader.plan.build.internal.returns.EntityReturnImpl@759d81f3
[TRACE] 2019-06-11 11:35:09.975 AbstractLoadPlanBuildingAssociationVisitationStrategy:239 - >> Starting entity identifier : com.lukianchenko.model.CurrencyEntity
[TRACE] 2019-06-11 11:35:09.975 AbstractLoadPlanBuildingAssociationVisitationStrategy:120 - Popped fetch owner from stack : org.hibernate.loader.plan.build.internal.returns.EntityReturnImpl@759d81f3
[TRACE] 2019-06-11 11:35:09.975 AbstractLoadPlanBuildingAssociationVisitationStrategy:208 -  Finished root entity : com.lukianchenko.model.CurrencyEntity
[DEBUG] 2019-06-11 11:35:09.976 FetchStyleLoadPlanBuildingAssociationVisitationStrategy:150 - Building LoadPlan...
[DEBUG] 2019-06-11 11:35:09.976 LoadQueryJoinAndFetchProcessor:101 - processing queryspace <gen:0>
[DEBUG] 2019-06-11 11:35:09.977 LoadPlanTreePrinter:55 - LoadPlan(entity=com.lukianchenko.model.CurrencyEntity)
    - Returns
       - EntityReturnImpl(entity=com.lukianchenko.model.CurrencyEntity, querySpaceUid=<gen:0>, path=com.lukianchenko.model.CurrencyEntity)
    - QuerySpaces
       - EntityQuerySpaceImpl(uid=<gen:0>, entity=com.lukianchenko.model.CurrencyEntity)
          - SQL table alias mapping - currencyen0_
          - alias suffix - 0_
          - suffixed key columns - {id1_0_0_}

[DEBUG] 2019-06-11 11:35:09.978 EntityLoader:115 - Static select for entity com.lukianchenko.model.CurrencyEntity [UPGRADE_SKIPLOCKED]: select currencyen0_.id as id1_0_0_ from currencies currencyen0_ where currencyen0_.id=? for update
[TRACE] 2019-06-11 11:35:09.978 AbstractLoadPlanBuildingAssociationVisitationStrategy:172 -  Starting root entity : com.lukianchenko.model.CurrencyEntity
[DEBUG] 2019-06-11 11:35:09.978 QuerySpacesImpl:174 - Adding QuerySpace : uid = <gen:0> -> org.hibernate.loader.plan.build.internal.spaces.EntityQuerySpaceImpl@781a9412]
[TRACE] 2019-06-11 11:35:09.978 AbstractLoadPlanBuildingAssociationVisitationStrategy:113 - Pushing fetch source to stack : org.hibernate.loader.plan.build.internal.returns.EntityReturnImpl@5a4c638d
[TRACE] 2019-06-11 11:35:09.979 AbstractLoadPlanBuildingAssociationVisitationStrategy:648 - .. Registering AssociationKey : AssociationKey(table=currencies, columns={id}) -> org.hibernate.loader.plan.build.internal.returns.EntityReturnImpl@5a4c638d
[TRACE] 2019-06-11 11:35:09.979 AbstractLoadPlanBuildingAssociationVisitationStrategy:239 - >> Starting entity identifier : com.lukianchenko.model.CurrencyEntity
[TRACE] 2019-06-11 11:35:09.979 AbstractLoadPlanBuildingAssociationVisitationStrategy:120 - Popped fetch owner from stack : org.hibernate.loader.plan.build.internal.returns.EntityReturnImpl@5a4c638d
[TRACE] 2019-06-11 11:35:09.979 AbstractLoadPlanBuildingAssociationVisitationStrategy:208 -  Finished root entity : com.lukianchenko.model.CurrencyEntity
[DEBUG] 2019-06-11 11:35:09.980 FetchStyleLoadPlanBuildingAssociationVisitationStrategy:150 - Building LoadPlan...
[DEBUG] 2019-06-11 11:35:09.980 LoadQueryJoinAndFetchProcessor:101 - processing queryspace <gen:0>
[DEBUG] 2019-06-11 11:35:09.981 LoadPlanTreePrinter:55 - LoadPlan(entity=com.lukianchenko.model.CurrencyEntity)
    - Returns
       - EntityReturnImpl(entity=com.lukianchenko.model.CurrencyEntity, querySpaceUid=<gen:0>, path=com.lukianchenko.model.CurrencyEntity)
    - QuerySpaces
       - EntityQuerySpaceImpl(uid=<gen:0>, entity=com.lukianchenko.model.CurrencyEntity)
          - SQL table alias mapping - currencyen0_
          - alias suffix - 0_
          - suffixed key columns - {id1_0_0_}

[DEBUG] 2019-06-11 11:35:09.981 EntityLoader:115 - Static select for entity com.lukianchenko.model.CurrencyEntity [FORCE]: select currencyen0_.id as id1_0_0_ from currencies currencyen0_ where currencyen0_.id=? for update
[TRACE] 2019-06-11 11:35:09.981 AbstractLoadPlanBuildingAssociationVisitationStrategy:172 -  Starting root entity : com.lukianchenko.model.CurrencyEntity
[DEBUG] 2019-06-11 11:35:09.982 QuerySpacesImpl:174 - Adding QuerySpace : uid = <gen:0> -> org.hibernate.loader.plan.build.internal.spaces.EntityQuerySpaceImpl@13e698c7]
[TRACE] 2019-06-11 11:35:09.982 AbstractLoadPlanBuildingAssociationVisitationStrategy:113 - Pushing fetch source to stack : org.hibernate.loader.plan.build.internal.returns.EntityReturnImpl@aed0151
[TRACE] 2019-06-11 11:35:09.982 AbstractLoadPlanBuildingAssociationVisitationStrategy:648 - .. Registering AssociationKey : AssociationKey(table=currencies, columns={id}) -> org.hibernate.loader.plan.build.internal.returns.EntityReturnImpl@aed0151
[TRACE] 2019-06-11 11:35:09.983 AbstractLoadPlanBuildingAssociationVisitationStrategy:239 - >> Starting entity identifier : com.lukianchenko.model.CurrencyEntity
[TRACE] 2019-06-11 11:35:09.983 AbstractLoadPlanBuildingAssociationVisitationStrategy:120 - Popped fetch owner from stack : org.hibernate.loader.plan.build.internal.returns.EntityReturnImpl@aed0151
[TRACE] 2019-06-11 11:35:09.983 AbstractLoadPlanBuildingAssociationVisitationStrategy:208 -  Finished root entity : com.lukianchenko.model.CurrencyEntity
[DEBUG] 2019-06-11 11:35:09.983 FetchStyleLoadPlanBuildingAssociationVisitationStrategy:150 - Building LoadPlan...
[DEBUG] 2019-06-11 11:35:09.984 LoadQueryJoinAndFetchProcessor:101 - processing queryspace <gen:0>
[DEBUG] 2019-06-11 11:35:09.984 LoadPlanTreePrinter:55 - LoadPlan(entity=com.lukianchenko.model.CurrencyEntity)
    - Returns
       - EntityReturnImpl(entity=com.lukianchenko.model.CurrencyEntity, querySpaceUid=<gen:0>, path=com.lukianchenko.model.CurrencyEntity)
    - QuerySpaces
       - EntityQuerySpaceImpl(uid=<gen:0>, entity=com.lukianchenko.model.CurrencyEntity)
          - SQL table alias mapping - currencyen0_
          - alias suffix - 0_
          - suffixed key columns - {id1_0_0_}

[DEBUG] 2019-06-11 11:35:09.985 EntityLoader:115 - Static select for entity com.lukianchenko.model.CurrencyEntity [PESSIMISTIC_READ]: select currencyen0_.id as id1_0_0_ from currencies currencyen0_ where currencyen0_.id=? lock in share mode
[TRACE] 2019-06-11 11:35:09.985 AbstractLoadPlanBuildingAssociationVisitationStrategy:172 -  Starting root entity : com.lukianchenko.model.CurrencyEntity
[DEBUG] 2019-06-11 11:35:09.985 QuerySpacesImpl:174 - Adding QuerySpace : uid = <gen:0> -> org.hibernate.loader.plan.build.internal.spaces.EntityQuerySpaceImpl@267bbe1a]
[TRACE] 2019-06-11 11:35:09.985 AbstractLoadPlanBuildingAssociationVisitationStrategy:113 - Pushing fetch source to stack : org.hibernate.loader.plan.build.internal.returns.EntityReturnImpl@1f12e153
[TRACE] 2019-06-11 11:35:09.985 AbstractLoadPlanBuildingAssociationVisitationStrategy:648 - .. Registering AssociationKey : AssociationKey(table=currencies, columns={id}) -> org.hibernate.loader.plan.build.internal.returns.EntityReturnImpl@1f12e153
[TRACE] 2019-06-11 11:35:09.986 AbstractLoadPlanBuildingAssociationVisitationStrategy:239 - >> Starting entity identifier : com.lukianchenko.model.CurrencyEntity
[TRACE] 2019-06-11 11:35:09.986 AbstractLoadPlanBuildingAssociationVisitationStrategy:120 - Popped fetch owner from stack : org.hibernate.loader.plan.build.internal.returns.EntityReturnImpl@1f12e153
[TRACE] 2019-06-11 11:35:09.986 AbstractLoadPlanBuildingAssociationVisitationStrategy:208 -  Finished root entity : com.lukianchenko.model.CurrencyEntity
[DEBUG] 2019-06-11 11:35:09.986 FetchStyleLoadPlanBuildingAssociationVisitationStrategy:150 - Building LoadPlan...
[DEBUG] 2019-06-11 11:35:09.987 LoadQueryJoinAndFetchProcessor:101 - processing queryspace <gen:0>
[DEBUG] 2019-06-11 11:35:09.987 LoadPlanTreePrinter:55 - LoadPlan(entity=com.lukianchenko.model.CurrencyEntity)
    - Returns
       - EntityReturnImpl(entity=com.lukianchenko.model.CurrencyEntity, querySpaceUid=<gen:0>, path=com.lukianchenko.model.CurrencyEntity)
    - QuerySpaces
       - EntityQuerySpaceImpl(uid=<gen:0>, entity=com.lukianchenko.model.CurrencyEntity)
          - SQL table alias mapping - currencyen0_
          - alias suffix - 0_
          - suffixed key columns - {id1_0_0_}

[DEBUG] 2019-06-11 11:35:09.988 EntityLoader:115 - Static select for entity com.lukianchenko.model.CurrencyEntity [PESSIMISTIC_WRITE]: select currencyen0_.id as id1_0_0_ from currencies currencyen0_ where currencyen0_.id=? for update
[TRACE] 2019-06-11 11:35:09.988 AbstractLoadPlanBuildingAssociationVisitationStrategy:172 -  Starting root entity : com.lukianchenko.model.CurrencyEntity
[DEBUG] 2019-06-11 11:35:09.988 QuerySpacesImpl:174 - Adding QuerySpace : uid = <gen:0> -> org.hibernate.loader.plan.build.internal.spaces.EntityQuerySpaceImpl@389562d6]
[TRACE] 2019-06-11 11:35:09.988 AbstractLoadPlanBuildingAssociationVisitationStrategy:113 - Pushing fetch source to stack : org.hibernate.loader.plan.build.internal.returns.EntityReturnImpl@5a101b1c
[TRACE] 2019-06-11 11:35:09.989 AbstractLoadPlanBuildingAssociationVisitationStrategy:648 - .. Registering AssociationKey : AssociationKey(table=currencies, columns={id}) -> org.hibernate.loader.plan.build.internal.returns.EntityReturnImpl@5a101b1c
[TRACE] 2019-06-11 11:35:09.989 AbstractLoadPlanBuildingAssociationVisitationStrategy:239 - >> Starting entity identifier : com.lukianchenko.model.CurrencyEntity
[TRACE] 2019-06-11 11:35:09.989 AbstractLoadPlanBuildingAssociationVisitationStrategy:120 - Popped fetch owner from stack : org.hibernate.loader.plan.build.internal.returns.EntityReturnImpl@5a101b1c
[TRACE] 2019-06-11 11:35:09.989 AbstractLoadPlanBuildingAssociationVisitationStrategy:208 -  Finished root entity : com.lukianchenko.model.CurrencyEntity
[DEBUG] 2019-06-11 11:35:09.990 FetchStyleLoadPlanBuildingAssociationVisitationStrategy:150 - Building LoadPlan...
[DEBUG] 2019-06-11 11:35:09.990 LoadQueryJoinAndFetchProcessor:101 - processing queryspace <gen:0>
[DEBUG] 2019-06-11 11:35:09.991 LoadPlanTreePrinter:55 - LoadPlan(entity=com.lukianchenko.model.CurrencyEntity)
    - Returns
       - EntityReturnImpl(entity=com.lukianchenko.model.CurrencyEntity, querySpaceUid=<gen:0>, path=com.lukianchenko.model.CurrencyEntity)
    - QuerySpaces
       - EntityQuerySpaceImpl(uid=<gen:0>, entity=com.lukianchenko.model.CurrencyEntity)
          - SQL table alias mapping - currencyen0_
          - alias suffix - 0_
          - suffixed key columns - {id1_0_0_}

[DEBUG] 2019-06-11 11:35:09.992 EntityLoader:115 - Static select for entity com.lukianchenko.model.CurrencyEntity [PESSIMISTIC_FORCE_INCREMENT]: select currencyen0_.id as id1_0_0_ from currencies currencyen0_ where currencyen0_.id=? for update
[TRACE] 2019-06-11 11:35:09.992 AbstractLoadPlanBuildingAssociationVisitationStrategy:172 -  Starting root entity : com.lukianchenko.model.CurrencyEntity
[DEBUG] 2019-06-11 11:35:09.992 QuerySpacesImpl:174 - Adding QuerySpace : uid = <gen:0> -> org.hibernate.loader.plan.build.internal.spaces.EntityQuerySpaceImpl@2160e52a]
[TRACE] 2019-06-11 11:35:09.993 AbstractLoadPlanBuildingAssociationVisitationStrategy:113 - Pushing fetch source to stack : org.hibernate.loader.plan.build.internal.returns.EntityReturnImpl@29f0802c
[TRACE] 2019-06-11 11:35:09.993 AbstractLoadPlanBuildingAssociationVisitationStrategy:648 - .. Registering AssociationKey : AssociationKey(table=currencies, columns={id}) -> org.hibernate.loader.plan.build.internal.returns.EntityReturnImpl@29f0802c
[TRACE] 2019-06-11 11:35:09.993 AbstractLoadPlanBuildingAssociationVisitationStrategy:239 - >> Starting entity identifier : com.lukianchenko.model.CurrencyEntity
[TRACE] 2019-06-11 11:35:09.993 AbstractLoadPlanBuildingAssociationVisitationStrategy:120 - Popped fetch owner from stack : org.hibernate.loader.plan.build.internal.returns.EntityReturnImpl@29f0802c
[TRACE] 2019-06-11 11:35:09.994 AbstractLoadPlanBuildingAssociationVisitationStrategy:208 -  Finished root entity : com.lukianchenko.model.CurrencyEntity
[DEBUG] 2019-06-11 11:35:09.994 FetchStyleLoadPlanBuildingAssociationVisitationStrategy:150 - Building LoadPlan...
[DEBUG] 2019-06-11 11:35:09.994 LoadQueryJoinAndFetchProcessor:101 - processing queryspace <gen:0>
[DEBUG] 2019-06-11 11:35:09.995 LoadPlanTreePrinter:55 - LoadPlan(entity=com.lukianchenko.model.CurrencyEntity)
    - Returns
       - EntityReturnImpl(entity=com.lukianchenko.model.CurrencyEntity, querySpaceUid=<gen:0>, path=com.lukianchenko.model.CurrencyEntity)
    - QuerySpaces
       - EntityQuerySpaceImpl(uid=<gen:0>, entity=com.lukianchenko.model.CurrencyEntity)
          - SQL table alias mapping - currencyen0_
          - alias suffix - 0_
          - suffixed key columns - {id1_0_0_}

[DEBUG] 2019-06-11 11:35:09.995 EntityLoader:115 - Static select for entity com.lukianchenko.model.CurrencyEntity [OPTIMISTIC]: select currencyen0_.id as id1_0_0_ from currencies currencyen0_ where currencyen0_.id=?
[TRACE] 2019-06-11 11:35:09.995 AbstractLoadPlanBuildingAssociationVisitationStrategy:172 -  Starting root entity : com.lukianchenko.model.CurrencyEntity
[DEBUG] 2019-06-11 11:35:09.995 QuerySpacesImpl:174 - Adding QuerySpace : uid = <gen:0> -> org.hibernate.loader.plan.build.internal.spaces.EntityQuerySpaceImpl@3a60c416]
[TRACE] 2019-06-11 11:35:09.996 AbstractLoadPlanBuildingAssociationVisitationStrategy:113 - Pushing fetch source to stack : org.hibernate.loader.plan.build.internal.returns.EntityReturnImpl@60f2e0bd
[TRACE] 2019-06-11 11:35:09.996 AbstractLoadPlanBuildingAssociationVisitationStrategy:648 - .. Registering AssociationKey : AssociationKey(table=currencies, columns={id}) -> org.hibernate.loader.plan.build.internal.returns.EntityReturnImpl@60f2e0bd
[TRACE] 2019-06-11 11:35:09.996 AbstractLoadPlanBuildingAssociationVisitationStrategy:239 - >> Starting entity identifier : com.lukianchenko.model.CurrencyEntity
[TRACE] 2019-06-11 11:35:09.996 AbstractLoadPlanBuildingAssociationVisitationStrategy:120 - Popped fetch owner from stack : org.hibernate.loader.plan.build.internal.returns.EntityReturnImpl@60f2e0bd
[TRACE] 2019-06-11 11:35:09.996 AbstractLoadPlanBuildingAssociationVisitationStrategy:208 -  Finished root entity : com.lukianchenko.model.CurrencyEntity
[DEBUG] 2019-06-11 11:35:09.997 FetchStyleLoadPlanBuildingAssociationVisitationStrategy:150 - Building LoadPlan...
[DEBUG] 2019-06-11 11:35:09.997 LoadQueryJoinAndFetchProcessor:101 - processing queryspace <gen:0>
[DEBUG] 2019-06-11 11:35:09.997 LoadPlanTreePrinter:55 - LoadPlan(entity=com.lukianchenko.model.CurrencyEntity)
    - Returns
       - EntityReturnImpl(entity=com.lukianchenko.model.CurrencyEntity, querySpaceUid=<gen:0>, path=com.lukianchenko.model.CurrencyEntity)
    - QuerySpaces
       - EntityQuerySpaceImpl(uid=<gen:0>, entity=com.lukianchenko.model.CurrencyEntity)
          - SQL table alias mapping - currencyen0_
          - alias suffix - 0_
          - suffixed key columns - {id1_0_0_}

[DEBUG] 2019-06-11 11:35:09.998 EntityLoader:115 - Static select for entity com.lukianchenko.model.CurrencyEntity [OPTIMISTIC_FORCE_INCREMENT]: select currencyen0_.id as id1_0_0_ from currencies currencyen0_ where currencyen0_.id=?
[DEBUG] 2019-06-11 11:35:10.029 CascadeEntityLoader:38 - Static select for action ACTION_MERGE on entity com.lukianchenko.model.CurrencyEntity: select currencyen0_.id as id1_0_0_ from currencies currencyen0_ where currencyen0_.id=?
[DEBUG] 2019-06-11 11:35:10.030 CascadeEntityLoader:38 - Static select for action ACTION_REFRESH on entity com.lukianchenko.model.CurrencyEntity: select currencyen0_.id as id1_0_0_ from currencies currencyen0_ where currencyen0_.id=?
[TRACE] 2019-06-11 11:35:10.051 MetadataContext:182 - Wrapping up metadata context...
[TRACE] 2019-06-11 11:35:10.052 MetadataContext:194 - Starting entity [com.lukianchenko.model.CurrencyEntity]
[TRACE] 2019-06-11 11:35:10.055 AttributeFactory:125 - Building identifier attribute [com.lukianchenko.model.CurrencyEntity.id]
[TRACE] 2019-06-11 11:35:10.056 AttributeFactory:454 - Starting attribute metadata determination [id]
[TRACE] 2019-06-11 11:35:10.063 AttributeFactory:459 -     Determined member [private java.lang.String com.lukianchenko.model.CurrencyEntity.id]
[TRACE] 2019-06-11 11:35:10.064 AttributeFactory:463 -     Determined type [name=string, class=org.hibernate.type.StringType]
[TRACE] 2019-06-11 11:35:10.074 MetadataContext:225 - Completed entity [com.lukianchenko.model.CurrencyEntity]
[DEBUG] 2019-06-11 11:35:10.087 SchemaManagementToolCoordinator:56 - No actions specified; doing nothing
[TRACE] 2019-06-11 11:35:10.087 AbstractServiceRegistryImpl:229 - Initializing service [role=org.hibernate.engine.transaction.jta.platform.spi.JtaPlatform]
[DEBUG] 2019-06-11 11:35:10.088 JtaPlatformInitiator:42 - No JtaPlatform was specified, checking resolver
[TRACE] 2019-06-11 11:35:10.088 AbstractServiceRegistryImpl:229 - Initializing service [role=org.hibernate.engine.transaction.jta.platform.spi.JtaPlatformResolver]
[DEBUG] 2019-06-11 11:35:10.089 JtaPlatformResolverInitiator:33 - No JtaPlatformResolver was specified, using default [org.hibernate.engine.transaction.jta.platform.internal.StandardJtaPlatformResolver]
[DEBUG] 2019-06-11 11:35:10.098 StandardJtaPlatformResolver:102 - Could not resolve JtaPlatform, using default [org.hibernate.engine.transaction.jta.platform.internal.NoJtaPlatform]
[DEBUG] 2019-06-11 11:35:10.101 NamedQueryRepository:151 - Checking 0 named HQL queries
[DEBUG] 2019-06-11 11:35:10.101 NamedQueryRepository:167 - Checking 0 named SQL queries
[DEBUG] 2019-06-11 11:35:10.105 SessionFactoryRegistry:52 - Initializing SessionFactoryRegistry : org.hibernate.internal.SessionFactoryRegistry@1eea9d2d
[TRACE] 2019-06-11 11:35:10.105 AbstractServiceRegistryImpl:229 - Initializing service [role=org.hibernate.engine.jndi.spi.JndiService]
[DEBUG] 2019-06-11 11:35:10.108 SessionFactoryRegistry:74 - Registering SessionFactory: 6426b7b3-057b-4d72-bdcb-cd8f56176671 (<unnamed>)
[DEBUG] 2019-06-11 11:35:10.109 SessionFactoryRegistry:81 - Not binding SessionFactory to JNDI, no JNDI name configured
[TRACE] 2019-06-11 11:35:10.115 SessionFactoryImpl$SessionBuilderImpl:1208 - Opening Hibernate Session.  tenant=null, owner=null
[TRACE] 2019-06-11 11:35:10.257 AbstractServiceRegistryImpl:229 - Initializing service [role=org.hibernate.stat.spi.StatisticsImplementor]
[DEBUG] 2019-06-11 11:35:10.264 StatisticsInitiator:82 - Statistics initialized [enabled=false]
[TRACE] 2019-06-11 11:35:10.275 SessionImpl:284 - Opened Session [bfdc97a5-70b6-4a48-b039-5ff8e15c3be5] at timestamp: 15602421101
[DEBUG] 2019-06-11 11:35:10.278 TransactionImpl:55 - begin
[TRACE] 2019-06-11 11:35:10.279 AbstractLogicalConnectionImplementor:66 - Preparing to begin transaction via JDBC Connection.setAutoCommit(false)
[TRACE] 2019-06-11 11:35:10.281 AbstractLogicalConnectionImplementor:68 - Transaction begun via JDBC Connection.setAutoCommit(false)
[TRACE] 2019-06-11 11:35:10.283 JdbcResourceLocalTransactionCoordinatorImpl:140 - ResourceLocalTransactionCoordinatorImpl#afterBeginCallback
[TRACE] 2019-06-11 11:35:10.285 DefaultSaveOrUpdateEventListener:163 - Saving transient instance
[TRACE] 2019-06-11 11:35:10.291 AbstractSaveEventListener:157 - Saving [com.lukianchenko.model.CurrencyEntity#<null>]
[TRACE] 2019-06-11 11:35:10.302 ActionQueue:305 - Adding an EntityIdentityInsertAction for [com.lukianchenko.model.CurrencyEntity] object
[TRACE] 2019-06-11 11:35:10.303 ActionQueue:255 - Executing inserts beforeQuery finding non-nullable transient entities for early insert: [EntityIdentityInsertAction[com.lukianchenko.model.CurrencyEntity#<null>]]
[TRACE] 2019-06-11 11:35:10.306 ActionQueue:260 - Adding insert with no non-nullable, transient entities: [EntityIdentityInsertAction[com.lukianchenko.model.CurrencyEntity#<null>]]
[TRACE] 2019-06-11 11:35:10.306 ActionQueue:277 - Executing insertions beforeQuery resolved early-insert
[DEBUG] 2019-06-11 11:35:10.306 ActionQueue:279 - Executing identity-insert immediately
[TRACE] 2019-06-11 11:35:10.308 AbstractEntityPersister:2893 - Inserting entity: com.lukianchenko.model.CurrencyEntity (native id)
[DEBUG] 2019-06-11 11:35:10.316 SqlStatementLogger:92 - insert into currencies values ( )
[TRACE] 2019-06-11 11:35:10.427 ResourceRegistryStandardImpl:55 - Registering statement [com.mysql.cj.jdbc.ClientPreparedStatement: insert into currencies values ( )]
[TRACE] 2019-06-11 11:35:10.427 AbstractEntityPersister:2709 - Dehydrating entity: [com.lukianchenko.model.CurrencyEntity#<null>]
[DEBUG] 2019-06-11 11:35:10.436 IdentifierGeneratorHelper:78 - Natively generated identity: 17
[TRACE] 2019-06-11 11:35:10.436 ResourceRegistryStandardImpl:91 - Releasing result set [com.mysql.cj.jdbc.result.ResultSetImpl@748fe51d]
[DEBUG] 2019-06-11 11:35:10.437 ResourceRegistryStandardImpl:104 - HHH000387: ResultSet's statement was not registered
[TRACE] 2019-06-11 11:35:10.437 ResourceRegistryStandardImpl:132 - Closing result set [com.mysql.cj.jdbc.result.ResultSetImpl@748fe51d]
[TRACE] 2019-06-11 11:35:10.437 ResourceRegistryStandardImpl:68 - Releasing statement [com.mysql.cj.jdbc.ClientPreparedStatement: insert into currencies values ( )]
[TRACE] 2019-06-11 11:35:10.438 ResourceRegistryStandardImpl:148 - Closing prepared statement [com.mysql.cj.jdbc.ClientPreparedStatement: insert into currencies values ( )]
[TRACE] 2019-06-11 11:35:10.438 JdbcCoordinatorImpl:263 - Starting afterQuery statement execution processing [AFTER_TRANSACTION]
[DEBUG] 2019-06-11 11:35:10.443 TransactionImpl:66 - committing
[TRACE] 2019-06-11 11:35:10.443 JdbcResourceLocalTransactionCoordinatorImpl:144 - ResourceLocalTransactionCoordinatorImpl#beforeCompletionCallback
[TRACE] 2019-06-11 11:35:10.444 SessionImpl:2410 - SessionImpl#beforeTransactionCompletion()
[TRACE] 2019-06-11 11:35:10.444 SessionImpl:490 - Automatically flushing session
[TRACE] 2019-06-11 11:35:10.444 AbstractFlushingEventListener:67 - Flushing session
[DEBUG] 2019-06-11 11:35:10.446 AbstractFlushingEventListener:132 - Processing flush-time cascades
[DEBUG] 2019-06-11 11:35:10.447 AbstractFlushingEventListener:174 - Dirty checking collections
[TRACE] 2019-06-11 11:35:10.447 AbstractFlushingEventListener:189 - Flushing entities and processing referenced collections
[TRACE] 2019-06-11 11:35:10.447 AbstractFlushingEventListener:232 - Processing unreferenced collections
[TRACE] 2019-06-11 11:35:10.447 AbstractFlushingEventListener:249 - Scheduling collection removes/(re)creates/updates
[DEBUG] 2019-06-11 11:35:10.447 AbstractFlushingEventListener:106 - Flushed: 0 insertions, 0 updates, 0 deletions to 1 objects
[DEBUG] 2019-06-11 11:35:10.447 AbstractFlushingEventListener:113 - Flushed: 0 (re)creations, 0 updates, 0 removals to 0 collections
[DEBUG] 2019-06-11 11:35:10.447 EntityPrinter:102 - Listing entities:
[DEBUG] 2019-06-11 11:35:10.447 EntityPrinter:109 - com.lukianchenko.model.CurrencyEntity{id=17}
[TRACE] 2019-06-11 11:35:10.447 AbstractFlushingEventListener:325 - Executing flush
[TRACE] 2019-06-11 11:35:10.447 JdbcCoordinatorImpl:263 - Starting afterQuery statement execution processing [AFTER_TRANSACTION]
[TRACE] 2019-06-11 11:35:10.447 AbstractFlushingEventListener:357 - Post flush
[TRACE] 2019-06-11 11:35:10.447 SynchronizationRegistryStandardImpl:55 - SynchronizationRegistryStandardImpl.notifySynchronizationsBeforeTransactionCompletion
[TRACE] 2019-06-11 11:35:10.447 AbstractLogicalConnectionImplementor:80 - Preparing to commit transaction via JDBC Connection.commit()
[TRACE] 2019-06-11 11:35:10.572 AbstractLogicalConnectionImplementor:83 - Transaction committed via JDBC Connection.commit()
[TRACE] 2019-06-11 11:35:10.572 AbstractLogicalConnectionImplementor:53 - LogicalConnection#afterTransaction
[TRACE] 2019-06-11 11:35:10.572 ResourceRegistryStandardImpl:286 - Releasing JDBC resources
[DEBUG] 2019-06-11 11:35:10.572 LogicalConnectionManagedImpl:170 - Initiating JDBC connection release from afterTransaction
[TRACE] 2019-06-11 11:35:10.572 ResourceRegistryStandardImpl:286 - Releasing JDBC resources
[TRACE] 2019-06-11 11:35:10.572 JdbcResourceLocalTransactionCoordinatorImpl:162 - ResourceLocalTransactionCoordinatorImpl#afterCompletionCallback(true)
[TRACE] 2019-06-11 11:35:10.572 DelegatingBasicLogger:159 - SynchronizationRegistryStandardImpl.notifySynchronizationsAfterTransactionCompletion(3)
[TRACE] 2019-06-11 11:35:10.572 AbstractLogicalConnectionImplementor:53 - LogicalConnection#afterTransaction
[TRACE] 2019-06-11 11:35:10.572 ResourceRegistryStandardImpl:286 - Releasing JDBC resources
[DEBUG] 2019-06-11 11:35:10.572 LogicalConnectionManagedImpl:170 - Initiating JDBC connection release from afterTransaction
[TRACE] 2019-06-11 11:35:10.572 SessionImpl:2423 - SessionImpl#afterTransactionCompletion(successful=true, delayed=false)
[TRACE] 2019-06-11 11:35:10.588 QueryPlanCache:152 - Unable to locate HQL query plan in cache; generating (from CurrencyEntity)
[TRACE] 2019-06-11 11:35:10.603 AbstractServiceRegistryImpl:229 - Initializing service [role=org.hibernate.hql.spi.QueryTranslatorFactory]
[DEBUG] 2019-06-11 11:35:10.603 QueryTranslatorFactoryInitiator:45 - QueryTranslatorFactory : org.hibernate.hql.internal.ast.ASTQueryTranslatorFactory@43effd89
[INFO ] 2019-06-11 11:35:10.603 QueryTranslatorFactoryInitiator:47 - HHH000397: Using ASTQueryTranslatorFactory
[DEBUG] 2019-06-11 11:35:10.669 QueryTranslatorImpl:282 - parse() - HQL: from com.lukianchenko.model.CurrencyEntity
[DEBUG] 2019-06-11 11:35:10.683 QueryTranslatorImpl:300 - --- HQL AST ---
 \-[QUERY] Node: 'query'
    \-[SELECT_FROM] Node: 'SELECT_FROM'
       \-[FROM] Node: 'from'
          \-[RANGE] Node: 'RANGE'
             \-[DOT] Node: '.'
                +-[DOT] Node: '.'
                |  +-[DOT] Node: '.'
                |  |  +-[IDENT] Node: 'com'
                |  |  \-[IDENT] Node: 'lukianchenko'
                |  \-[IDENT] Node: 'model'
                \-[IDENT] Node: 'CurrencyEntity'

[DEBUG] 2019-06-11 11:35:10.683 ErrorCounter:95 - throwQueryException() : no errors
[DEBUG] 2019-06-11 11:35:10.726 HqlSqlBaseWalker:124 - select << begin [level=1, statement=select]
[DEBUG] 2019-06-11 11:35:10.754 FromElement:147 - FromClause{level=1} : com.lukianchenko.model.CurrencyEntity (<no alias>) -> currencyen0_
[DEBUG] 2019-06-11 11:35:10.754 HqlSqlBaseWalker:128 - select : finishing up [level=1, statement=select]
[DEBUG] 2019-06-11 11:35:10.754 HqlSqlWalker:745 - processQuery() :  ( SELECT ( FromClause{level=1} currencies currencyen0_ ) )
[DEBUG] 2019-06-11 11:35:10.765 HqlSqlWalker:1021 - Derived SELECT clause created.
[DEBUG] 2019-06-11 11:35:10.776 JoinProcessor:187 - Using FROM fragment [currencies currencyen0_]
[DEBUG] 2019-06-11 11:35:10.777 HqlSqlBaseWalker:132 - select >> end [level=1, statement=select]
[DEBUG] 2019-06-11 11:35:10.777 QueryTranslatorImpl:269 - --- SQL AST ---
 \-[SELECT] QueryNode: 'SELECT'  querySpaces (currencies)
    +-[SELECT_CLAUSE] SelectClause: '{derived select clause}'
    |  \-[SELECT_EXPR] SelectExpressionImpl: 'currencyen0_.id as id1_0_' {FromElement{explicit,not a collection join,not a fetch join,fetch non-lazy properties,classAlias=null,role=null,tableName=currencies,tableAlias=currencyen0_,origin=null,columns={,className=com.lukianchenko.model.CurrencyEntity}}}
    \-[FROM] FromClause: 'from' FromClause{level=1, fromElementCounter=1, fromElements=1, fromElementByClassAlias=[], fromElementByTableAlias=[currencyen0_], fromElementsByPath=[], collectionJoinFromElementsByPath=[], impliedElements=[]}
       \-[FROM_FRAGMENT] FromElement: 'currencies currencyen0_' FromElement{explicit,not a collection join,not a fetch join,fetch non-lazy properties,classAlias=null,role=null,tableName=currencies,tableAlias=currencyen0_,origin=null,columns={,className=com.lukianchenko.model.CurrencyEntity}}

[DEBUG] 2019-06-11 11:35:10.778 ErrorCounter:95 - throwQueryException() : no errors
[DEBUG] 2019-06-11 11:35:10.788 QueryTranslatorImpl:251 - HQL: from com.lukianchenko.model.CurrencyEntity
[DEBUG] 2019-06-11 11:35:10.789 QueryTranslatorImpl:252 - SQL: select currencyen0_.id as id1_0_ from currencies currencyen0_
[DEBUG] 2019-06-11 11:35:10.789 ErrorCounter:95 - throwQueryException() : no errors
[TRACE] 2019-06-11 11:35:10.796 HQLQueryPlan:385 - HQL param location recognition took 2,500,241 nanoseconds (from CurrencyEntity)
[TRACE] 2019-06-11 11:35:10.808 QueryPlanCache:157 - Located HQL query plan in cache (from CurrencyEntity)
[TRACE] 2019-06-11 11:35:10.809 HQLQueryPlan:193 - Find: from CurrencyEntity
[TRACE] 2019-06-11 11:35:10.809 QueryParameters:324 - Named parameters: {}
[DEBUG] 2019-06-11 11:35:10.814 SqlStatementLogger:92 - select currencyen0_.id as id1_0_ from currencies currencyen0_
[TRACE] 2019-06-11 11:35:10.817 ResourceRegistryStandardImpl:55 - Registering statement [com.mysql.cj.jdbc.ClientPreparedStatement: select currencyen0_.id as id1_0_ from currencies currencyen0_]
[TRACE] 2019-06-11 11:35:10.817 JdbcCoordinatorImpl:333 - Registering last query statement [com.mysql.cj.jdbc.ClientPreparedStatement: select currencyen0_.id as id1_0_ from currencies currencyen0_]
[TRACE] 2019-06-11 11:35:10.819 Loader:1990 - Bound [1] parameters total
[TRACE] 2019-06-11 11:35:10.822 ResourceRegistryStandardImpl:182 - Registering result set [com.mysql.cj.jdbc.result.ResultSetImpl@5a8ba37c]
[TRACE] 2019-06-11 11:35:10.822 Loader:978 - Processing result set
[DEBUG] 2019-06-11 11:35:10.823 DelegatingBasicLogger:384 - Result set row: 0
[TRACE] 2019-06-11 11:35:10.828 BasicExtractor:61 - extracted value ([id1_0_] : [VARCHAR]) - [1]
[DEBUG] 2019-06-11 11:35:10.828 Loader:1527 - Result row: EntityKey[com.lukianchenko.model.CurrencyEntity#1]
[TRACE] 2019-06-11 11:35:10.829 Loader:1713 - Initializing object from ResultSet: [com.lukianchenko.model.CurrencyEntity#1]
[TRACE] 2019-06-11 11:35:10.832 AbstractEntityPersister:2774 - Hydrating entity: [com.lukianchenko.model.CurrencyEntity#1]
[DEBUG] 2019-06-11 11:35:10.832 DelegatingBasicLogger:384 - Result set row: 1
[TRACE] 2019-06-11 11:35:10.832 BasicExtractor:61 - extracted value ([id1_0_] : [VARCHAR]) - [2]
[DEBUG] 2019-06-11 11:35:10.833 Loader:1527 - Result row: EntityKey[com.lukianchenko.model.CurrencyEntity#2]
[TRACE] 2019-06-11 11:35:10.833 Loader:1713 - Initializing object from ResultSet: [com.lukianchenko.model.CurrencyEntity#2]
[TRACE] 2019-06-11 11:35:10.833 AbstractEntityPersister:2774 - Hydrating entity: [com.lukianchenko.model.CurrencyEntity#2]
[DEBUG] 2019-06-11 11:35:10.834 DelegatingBasicLogger:384 - Result set row: 2
[TRACE] 2019-06-11 11:35:10.834 BasicExtractor:61 - extracted value ([id1_0_] : [VARCHAR]) - [3]
[DEBUG] 2019-06-11 11:35:10.834 Loader:1527 - Result row: EntityKey[com.lukianchenko.model.CurrencyEntity#3]
[TRACE] 2019-06-11 11:35:10.835 Loader:1713 - Initializing object from ResultSet: [com.lukianchenko.model.CurrencyEntity#3]
[TRACE] 2019-06-11 11:35:10.835 AbstractEntityPersister:2774 - Hydrating entity: [com.lukianchenko.model.CurrencyEntity#3]
[DEBUG] 2019-06-11 11:35:10.835 DelegatingBasicLogger:384 - Result set row: 3
[TRACE] 2019-06-11 11:35:10.835 BasicExtractor:61 - extracted value ([id1_0_] : [VARCHAR]) - [4]
[DEBUG] 2019-06-11 11:35:10.836 Loader:1527 - Result row: EntityKey[com.lukianchenko.model.CurrencyEntity#4]
[TRACE] 2019-06-11 11:35:10.836 Loader:1713 - Initializing object from ResultSet: [com.lukianchenko.model.CurrencyEntity#4]
[TRACE] 2019-06-11 11:35:10.836 AbstractEntityPersister:2774 - Hydrating entity: [com.lukianchenko.model.CurrencyEntity#4]
[DEBUG] 2019-06-11 11:35:10.836 DelegatingBasicLogger:384 - Result set row: 4
[TRACE] 2019-06-11 11:35:10.837 BasicExtractor:61 - extracted value ([id1_0_] : [VARCHAR]) - [5]
[DEBUG] 2019-06-11 11:35:10.837 Loader:1527 - Result row: EntityKey[com.lukianchenko.model.CurrencyEntity#5]
[TRACE] 2019-06-11 11:35:10.837 Loader:1713 - Initializing object from ResultSet: [com.lukianchenko.model.CurrencyEntity#5]
[TRACE] 2019-06-11 11:35:10.837 AbstractEntityPersister:2774 - Hydrating entity: [com.lukianchenko.model.CurrencyEntity#5]
[DEBUG] 2019-06-11 11:35:10.838 DelegatingBasicLogger:384 - Result set row: 5
[TRACE] 2019-06-11 11:35:10.838 BasicExtractor:61 - extracted value ([id1_0_] : [VARCHAR]) - [6]
[DEBUG] 2019-06-11 11:35:10.838 Loader:1527 - Result row: EntityKey[com.lukianchenko.model.CurrencyEntity#6]
[TRACE] 2019-06-11 11:35:10.838 Loader:1713 - Initializing object from ResultSet: [com.lukianchenko.model.CurrencyEntity#6]
[TRACE] 2019-06-11 11:35:10.839 AbstractEntityPersister:2774 - Hydrating entity: [com.lukianchenko.model.CurrencyEntity#6]
[DEBUG] 2019-06-11 11:35:10.839 DelegatingBasicLogger:384 - Result set row: 6
[TRACE] 2019-06-11 11:35:10.840 BasicExtractor:61 - extracted value ([id1_0_] : [VARCHAR]) - [7]
[DEBUG] 2019-06-11 11:35:10.840 Loader:1527 - Result row: EntityKey[com.lukianchenko.model.CurrencyEntity#7]
[TRACE] 2019-06-11 11:35:10.840 Loader:1713 - Initializing object from ResultSet: [com.lukianchenko.model.CurrencyEntity#7]
[TRACE] 2019-06-11 11:35:10.840 AbstractEntityPersister:2774 - Hydrating entity: [com.lukianchenko.model.CurrencyEntity#7]
[DEBUG] 2019-06-11 11:35:10.841 DelegatingBasicLogger:384 - Result set row: 7
[TRACE] 2019-06-11 11:35:10.841 BasicExtractor:61 - extracted value ([id1_0_] : [VARCHAR]) - [8]
[DEBUG] 2019-06-11 11:35:10.841 Loader:1527 - Result row: EntityKey[com.lukianchenko.model.CurrencyEntity#8]
[TRACE] 2019-06-11 11:35:10.841 Loader:1713 - Initializing object from ResultSet: [com.lukianchenko.model.CurrencyEntity#8]
[TRACE] 2019-06-11 11:35:10.842 AbstractEntityPersister:2774 - Hydrating entity: [com.lukianchenko.model.CurrencyEntity#8]
[DEBUG] 2019-06-11 11:35:10.842 DelegatingBasicLogger:384 - Result set row: 8
[TRACE] 2019-06-11 11:35:10.842 BasicExtractor:61 - extracted value ([id1_0_] : [VARCHAR]) - [9]
[DEBUG] 2019-06-11 11:35:10.842 Loader:1527 - Result row: EntityKey[com.lukianchenko.model.CurrencyEntity#9]
[TRACE] 2019-06-11 11:35:10.843 Loader:1713 - Initializing object from ResultSet: [com.lukianchenko.model.CurrencyEntity#9]
[TRACE] 2019-06-11 11:35:10.843 AbstractEntityPersister:2774 - Hydrating entity: [com.lukianchenko.model.CurrencyEntity#9]
[DEBUG] 2019-06-11 11:35:10.843 DelegatingBasicLogger:384 - Result set row: 9
[TRACE] 2019-06-11 11:35:10.843 BasicExtractor:61 - extracted value ([id1_0_] : [VARCHAR]) - [10]
[DEBUG] 2019-06-11 11:35:10.844 Loader:1527 - Result row: EntityKey[com.lukianchenko.model.CurrencyEntity#10]
[TRACE] 2019-06-11 11:35:10.844 Loader:1713 - Initializing object from ResultSet: [com.lukianchenko.model.CurrencyEntity#10]
[TRACE] 2019-06-11 11:35:10.844 AbstractEntityPersister:2774 - Hydrating entity: [com.lukianchenko.model.CurrencyEntity#10]
[DEBUG] 2019-06-11 11:35:10.845 DelegatingBasicLogger:384 - Result set row: 10
[TRACE] 2019-06-11 11:35:10.845 BasicExtractor:61 - extracted value ([id1_0_] : [VARCHAR]) - [11]
[DEBUG] 2019-06-11 11:35:10.845 Loader:1527 - Result row: EntityKey[com.lukianchenko.model.CurrencyEntity#11]
[TRACE] 2019-06-11 11:35:10.845 Loader:1713 - Initializing object from ResultSet: [com.lukianchenko.model.CurrencyEntity#11]
[TRACE] 2019-06-11 11:35:10.846 AbstractEntityPersister:2774 - Hydrating entity: [com.lukianchenko.model.CurrencyEntity#11]
[DEBUG] 2019-06-11 11:35:10.846 DelegatingBasicLogger:384 - Result set row: 11
[TRACE] 2019-06-11 11:35:10.846 BasicExtractor:61 - extracted value ([id1_0_] : [VARCHAR]) - [12]
[DEBUG] 2019-06-11 11:35:10.847 Loader:1527 - Result row: EntityKey[com.lukianchenko.model.CurrencyEntity#12]
[TRACE] 2019-06-11 11:35:10.847 Loader:1713 - Initializing object from ResultSet: [com.lukianchenko.model.CurrencyEntity#12]
[TRACE] 2019-06-11 11:35:10.847 AbstractEntityPersister:2774 - Hydrating entity: [com.lukianchenko.model.CurrencyEntity#12]
[DEBUG] 2019-06-11 11:35:10.848 DelegatingBasicLogger:384 - Result set row: 12
[TRACE] 2019-06-11 11:35:10.848 BasicExtractor:61 - extracted value ([id1_0_] : [VARCHAR]) - [13]
[DEBUG] 2019-06-11 11:35:10.848 Loader:1527 - Result row: EntityKey[com.lukianchenko.model.CurrencyEntity#13]
[TRACE] 2019-06-11 11:35:10.849 Loader:1713 - Initializing object from ResultSet: [com.lukianchenko.model.CurrencyEntity#13]
[TRACE] 2019-06-11 11:35:10.849 AbstractEntityPersister:2774 - Hydrating entity: [com.lukianchenko.model.CurrencyEntity#13]
[DEBUG] 2019-06-11 11:35:10.850 DelegatingBasicLogger:384 - Result set row: 13
[TRACE] 2019-06-11 11:35:10.850 BasicExtractor:61 - extracted value ([id1_0_] : [VARCHAR]) - [14]
[DEBUG] 2019-06-11 11:35:10.850 Loader:1527 - Result row: EntityKey[com.lukianchenko.model.CurrencyEntity#14]
[TRACE] 2019-06-11 11:35:10.850 Loader:1713 - Initializing object from ResultSet: [com.lukianchenko.model.CurrencyEntity#14]
[TRACE] 2019-06-11 11:35:10.851 AbstractEntityPersister:2774 - Hydrating entity: [com.lukianchenko.model.CurrencyEntity#14]
[DEBUG] 2019-06-11 11:35:10.851 DelegatingBasicLogger:384 - Result set row: 14
[TRACE] 2019-06-11 11:35:10.851 BasicExtractor:61 - extracted value ([id1_0_] : [VARCHAR]) - [15]
[DEBUG] 2019-06-11 11:35:10.852 Loader:1527 - Result row: EntityKey[com.lukianchenko.model.CurrencyEntity#15]
[TRACE] 2019-06-11 11:35:10.853 Loader:1713 - Initializing object from ResultSet: [com.lukianchenko.model.CurrencyEntity#15]
[TRACE] 2019-06-11 11:35:10.853 AbstractEntityPersister:2774 - Hydrating entity: [com.lukianchenko.model.CurrencyEntity#15]
[DEBUG] 2019-06-11 11:35:10.853 DelegatingBasicLogger:384 - Result set row: 15
[TRACE] 2019-06-11 11:35:10.854 BasicExtractor:61 - extracted value ([id1_0_] : [VARCHAR]) - [16]
[DEBUG] 2019-06-11 11:35:10.854 Loader:1527 - Result row: EntityKey[com.lukianchenko.model.CurrencyEntity#16]
[TRACE] 2019-06-11 11:35:10.854 Loader:1713 - Initializing object from ResultSet: [com.lukianchenko.model.CurrencyEntity#16]
[TRACE] 2019-06-11 11:35:10.855 AbstractEntityPersister:2774 - Hydrating entity: [com.lukianchenko.model.CurrencyEntity#16]
[DEBUG] 2019-06-11 11:35:10.855 DelegatingBasicLogger:384 - Result set row: 16
[TRACE] 2019-06-11 11:35:10.855 BasicExtractor:61 - extracted value ([id1_0_] : [VARCHAR]) - [17]
[DEBUG] 2019-06-11 11:35:10.856 Loader:1527 - Result row: EntityKey[com.lukianchenko.model.CurrencyEntity#17]
[TRACE] 2019-06-11 11:35:10.856 Loader:1003 - Done processing result set (17 rows)
[TRACE] 2019-06-11 11:35:10.860 Loader:1144 - Total objects hydrated: 16
[DEBUG] 2019-06-11 11:35:10.860 TwoPhaseLoad:141 - Resolving associations for [com.lukianchenko.model.CurrencyEntity#1]
[DEBUG] 2019-06-11 11:35:10.861 TwoPhaseLoad:281 - Done materializing entity [com.lukianchenko.model.CurrencyEntity#1]
[DEBUG] 2019-06-11 11:35:10.861 TwoPhaseLoad:141 - Resolving associations for [com.lukianchenko.model.CurrencyEntity#2]
[DEBUG] 2019-06-11 11:35:10.861 TwoPhaseLoad:281 - Done materializing entity [com.lukianchenko.model.CurrencyEntity#2]
[DEBUG] 2019-06-11 11:35:10.861 TwoPhaseLoad:141 - Resolving associations for [com.lukianchenko.model.CurrencyEntity#3]
[DEBUG] 2019-06-11 11:35:10.861 TwoPhaseLoad:281 - Done materializing entity [com.lukianchenko.model.CurrencyEntity#3]
[DEBUG] 2019-06-11 11:35:10.862 TwoPhaseLoad:141 - Resolving associations for [com.lukianchenko.model.CurrencyEntity#4]
[DEBUG] 2019-06-11 11:35:10.862 TwoPhaseLoad:281 - Done materializing entity [com.lukianchenko.model.CurrencyEntity#4]
[DEBUG] 2019-06-11 11:35:10.862 TwoPhaseLoad:141 - Resolving associations for [com.lukianchenko.model.CurrencyEntity#5]
[DEBUG] 2019-06-11 11:35:10.862 TwoPhaseLoad:281 - Done materializing entity [com.lukianchenko.model.CurrencyEntity#5]
[DEBUG] 2019-06-11 11:35:10.862 TwoPhaseLoad:141 - Resolving associations for [com.lukianchenko.model.CurrencyEntity#6]
[DEBUG] 2019-06-11 11:35:10.863 TwoPhaseLoad:281 - Done materializing entity [com.lukianchenko.model.CurrencyEntity#6]
[DEBUG] 2019-06-11 11:35:10.863 TwoPhaseLoad:141 - Resolving associations for [com.lukianchenko.model.CurrencyEntity#7]
[DEBUG] 2019-06-11 11:35:10.863 TwoPhaseLoad:281 - Done materializing entity [com.lukianchenko.model.CurrencyEntity#7]
[DEBUG] 2019-06-11 11:35:10.863 TwoPhaseLoad:141 - Resolving associations for [com.lukianchenko.model.CurrencyEntity#8]
[DEBUG] 2019-06-11 11:35:10.864 TwoPhaseLoad:281 - Done materializing entity [com.lukianchenko.model.CurrencyEntity#8]
[DEBUG] 2019-06-11 11:35:10.864 TwoPhaseLoad:141 - Resolving associations for [com.lukianchenko.model.CurrencyEntity#9]
[DEBUG] 2019-06-11 11:35:10.864 TwoPhaseLoad:281 - Done materializing entity [com.lukianchenko.model.CurrencyEntity#9]
[DEBUG] 2019-06-11 11:35:10.864 TwoPhaseLoad:141 - Resolving associations for [com.lukianchenko.model.CurrencyEntity#10]
[DEBUG] 2019-06-11 11:35:10.864 TwoPhaseLoad:281 - Done materializing entity [com.lukianchenko.model.CurrencyEntity#10]
[DEBUG] 2019-06-11 11:35:10.864 TwoPhaseLoad:141 - Resolving associations for [com.lukianchenko.model.CurrencyEntity#11]
[DEBUG] 2019-06-11 11:35:10.865 TwoPhaseLoad:281 - Done materializing entity [com.lukianchenko.model.CurrencyEntity#11]
[DEBUG] 2019-06-11 11:35:10.865 TwoPhaseLoad:141 - Resolving associations for [com.lukianchenko.model.CurrencyEntity#12]
[DEBUG] 2019-06-11 11:35:10.866 TwoPhaseLoad:281 - Done materializing entity [com.lukianchenko.model.CurrencyEntity#12]
[DEBUG] 2019-06-11 11:35:10.866 TwoPhaseLoad:141 - Resolving associations for [com.lukianchenko.model.CurrencyEntity#13]
[DEBUG] 2019-06-11 11:35:10.866 TwoPhaseLoad:281 - Done materializing entity [com.lukianchenko.model.CurrencyEntity#13]
[DEBUG] 2019-06-11 11:35:10.866 TwoPhaseLoad:141 - Resolving associations for [com.lukianchenko.model.CurrencyEntity#14]
[DEBUG] 2019-06-11 11:35:10.867 TwoPhaseLoad:281 - Done materializing entity [com.lukianchenko.model.CurrencyEntity#14]
[DEBUG] 2019-06-11 11:35:10.867 TwoPhaseLoad:141 - Resolving associations for [com.lukianchenko.model.CurrencyEntity#15]
[DEBUG] 2019-06-11 11:35:10.867 TwoPhaseLoad:281 - Done materializing entity [com.lukianchenko.model.CurrencyEntity#15]
[DEBUG] 2019-06-11 11:35:10.867 TwoPhaseLoad:141 - Resolving associations for [com.lukianchenko.model.CurrencyEntity#16]
[DEBUG] 2019-06-11 11:35:10.867 TwoPhaseLoad:281 - Done materializing entity [com.lukianchenko.model.CurrencyEntity#16]
[TRACE] 2019-06-11 11:35:10.868 ResourceRegistryStandardImpl:68 - Releasing statement [com.mysql.cj.jdbc.ClientPreparedStatement: select currencyen0_.id as id1_0_ from currencies currencyen0_]
[TRACE] 2019-06-11 11:35:10.868 ResourceRegistryStandardImpl:132 - Closing result set [com.mysql.cj.jdbc.result.ResultSetImpl@5a8ba37c]
[TRACE] 2019-06-11 11:35:10.868 ResourceRegistryStandardImpl:148 - Closing prepared statement [com.mysql.cj.jdbc.ClientPreparedStatement: select currencyen0_.id as id1_0_ from currencies currencyen0_]
[TRACE] 2019-06-11 11:35:10.869 JdbcCoordinatorImpl:263 - Starting afterQuery statement execution processing [AFTER_TRANSACTION]
[TRACE] 2019-06-11 11:35:10.869 StatefulPersistenceContext:916 - Initializing non-lazy collections
[TRACE] 2019-06-11 11:35:10.870 AbstractLogicalConnectionImplementor:53 - LogicalConnection#afterTransaction
[TRACE] 2019-06-11 11:35:10.870 ResourceRegistryStandardImpl:286 - Releasing JDBC resources
[DEBUG] 2019-06-11 11:35:10.870 LogicalConnectionManagedImpl:170 - Initiating JDBC connection release from afterTransaction
[TRACE] 2019-06-11 11:35:10.871 ResourceRegistryStandardImpl:286 - Releasing JDBC resources
[TRACE] 2019-06-11 11:35:10.873 SessionImpl:404 - Closing session [bfdc97a5-70b6-4a48-b039-5ff8e15c3be5]
[TRACE] 2019-06-11 11:35:10.873 JdbcCoordinatorImpl:173 - Closing JDBC container [org.hibernate.engine.jdbc.internal.JdbcCoordinatorImpl@451f87af]
[TRACE] 2019-06-11 11:35:10.874 ResourceRegistryStandardImpl:286 - Releasing JDBC resources
[TRACE] 2019-06-11 11:35:10.874 LogicalConnectionManagedImpl:246 - Closing logical connection
[TRACE] 2019-06-11 11:35:10.874 LogicalConnectionManagedImpl:253 - Logical connection closed
